<?xml version="1.0" encoding="utf-8"?>
<!-- Generator: Adobe Illustrator 16.0.0, SVG Export Plug-In . SVG Version: 6.00 Build 0)  -->
<!DOCTYPE svg PUBLIC "-//W3C//DTD SVG 1.1//EN" "http://www.w3.org/Graphics/SVG/1.1/DTD/svg11.dtd">
<svg version="1.1" id="Layer_1" xmlns="http://www.w3.org/2000/svg" xmlns:xlink="http://www.w3.org/1999/xlink" x="0px" y="0px"
	 width="2285.551px" height="386.538px" viewBox="0 0 2285.551 386.538" enable-background="new 0 0 2285.551 386.538"
	 xml:space="preserve">
<path fill="#FFFFFF" d="M505.557,117.942l-220.386,1.117L119.15,0c0,0-23.726,32.428,4.832,61.257
	c30.403,27.462,46.921,45.17,46.921,45.17L19.053,83.131c0,0-4.917,38.76,40.307,58.624c56.354,14.998,65.77,18.831,65.77,18.831
	L0,202.823c0,0,5.826,47.237,74.106,32.017c85.042-18.853,85.042-18.853,85.042-18.853l21.522,109.716l68.231,59.67
	c0,0,17.402-45.193-10.555-75.367c-10.213-8.319-10.219-10.037-10.219-10.037l4.29-63.951l61.498-11.098l29.815,29.473
	l-16.024,44.959l-17.278,9.643c0,0-38.161,26.686-11.081,77.543c55.522-31.661,70.296-41.926,70.296-41.926l43.328-51.447
	c0,0,70.196-12.586,115.31-68.733c22.38-3.066,20.225-5.37,20.225-5.37S531.61,146.148,505.557,117.942z"/>
<g>
	<path fill="#FFFFFF" d="M849.06,208.438h35.833v56.602c-15.827,17.653-37.737,26.475-65.731,26.475
		c-23.433,0-43.101-7.76-58.999-23.28c-15.901-15.52-23.851-35.108-23.851-58.77c0-23.658,8.103-43.4,24.307-59.227
		c16.205-15.823,35.754-23.736,58.656-23.736c22.898,0,42.793,7.532,59.683,22.595L860.472,175.8
		c-7.154-6.237-13.733-10.534-19.742-12.895c-6.012-2.357-12.517-3.538-19.514-3.538c-13.544,0-24.956,4.604-34.235,13.808
		c-9.283,9.208-13.922,21.34-13.922,36.403s4.451,27.124,13.352,36.175c8.901,9.055,19.514,13.58,31.838,13.58
		s22.595-2.357,30.812-7.075V208.438z"/>
	<path fill="#FFFFFF" d="M1054.471,130.154v31.724h-79.426v32.866h71.438v30.355h-71.438v33.094h81.936v31.496H939.44V130.154
		H1054.471z"/>
	<path fill="#FFFFFF" d="M1221.421,144.418c11.184,9.511,16.775,24.118,16.775,43.821c0,19.707-5.745,34.121-17.231,43.25
		c-11.49,9.129-29.025,13.694-52.608,13.694h-21.226v44.505h-35.604V130.154h56.374
		C1192.396,130.154,1210.237,134.911,1221.421,144.418z M1195.288,207.183c4.258-4.793,6.391-11.79,6.391-20.998
		c0-9.204-2.778-15.748-8.33-19.628c-5.557-3.88-14.19-5.82-25.905-5.82h-20.313v53.635h23.965
		C1182.964,214.372,1191.026,211.976,1195.288,207.183z"/>
	<path fill="#FFFFFF" d="M1398.413,130.154v31.268h-73.948v34.463h70.296v31.268h-70.296v62.536h-35.604V130.154H1398.413z"/>
	<path fill="#FFFFFF" d="M1451.363,289.689V130.154h35.604v127.811h68.014v31.725H1451.363z"/>
	<path fill="#FFFFFF" d="M1646.045,248.493c5.934,7.382,13.922,11.069,23.964,11.069c10.043,0,17.991-3.688,23.851-11.069
		c5.855-7.378,8.787-17.46,8.787-30.241v-88.098h35.604v89.239c0,23.13-6.391,40.893-19.172,53.292
		c-12.78,12.403-29.139,18.601-49.07,18.601c-19.935,0-36.328-6.237-49.184-18.715c-12.86-12.474-19.286-30.202-19.286-53.178
		v-89.239h35.604v88.098C1637.144,231.033,1640.11,241.114,1646.045,248.493z M1635.66,108.357
		c-3.273-3.27-4.907-7.264-4.907-11.982c0-4.714,1.634-8.708,4.907-11.982c3.271-3.27,7.264-4.907,11.982-4.907
		c4.714,0,8.708,1.637,11.982,4.907c3.27,3.274,4.906,7.268,4.906,11.982c0,4.718-1.637,8.712-4.906,11.982
		c-3.274,3.273-7.269,4.907-11.982,4.907C1642.924,113.264,1638.931,111.631,1635.66,108.357z M1679.709,108.357
		c-3.273-3.27-4.907-7.264-4.907-11.982c0-4.714,1.634-8.708,4.907-11.982c3.271-3.27,7.265-4.907,11.982-4.907
		c4.715,0,8.709,1.637,11.982,4.907c3.27,3.274,4.907,7.268,4.907,11.982c0,4.718-1.638,8.712-4.907,11.982
		c-3.273,3.273-7.268,4.907-11.982,4.907C1686.974,113.264,1682.979,111.631,1679.709,108.357z"/>
	<path fill="#FFFFFF" d="M1871.31,258.193c17.496,0,31.8-6.922,42.908-20.77l22.823,23.508
		c-18.108,20.391-39.448,30.583-64.02,30.583c-24.574,0-44.812-7.76-60.71-23.28c-15.901-15.52-23.851-35.108-23.851-58.77
		c0-23.658,8.103-43.4,24.308-59.227c16.204-15.823,36.021-23.736,59.454-23.736c26.169,0,48.079,9.967,65.731,29.898
		l-22.139,25.106c-11.262-13.997-25.259-20.998-41.995-20.998c-13.391,0-24.842,4.375-34.349,13.124
		c-9.511,8.751-14.265,20.541-14.265,35.376c0,14.835,4.486,26.743,13.466,35.719
		C1847.648,253.707,1858.529,258.193,1871.31,258.193z"/>
	<path fill="#FFFFFF" d="M1987.936,130.154h35.604v65.503l60.254-65.503h44.049l-63.449,70.524
		c5.479,7.61,15.595,21.796,30.355,42.566c14.757,20.769,25.79,36.253,33.094,46.445h-41.538l-46.788-62.993l-15.977,17.802v45.19
		h-35.604V130.154z"/>
	<path fill="#FFFFFF" d="M2240.36,160.965v128.724h-35.604V160.965h-45.19v-30.812h125.985v30.812H2240.36z"/>
</g>
</svg>
