<?xml version="1.0" encoding="utf-8"?>
<!-- Generator: Adobe Illustrator 16.0.0, SVG Export Plug-In . SVG Version: 6.00 Build 0)  -->
<!DOCTYPE svg PUBLIC "-//W3C//DTD SVG 1.1//EN" "http://www.w3.org/Graphics/SVG/1.1/DTD/svg11.dtd">
<svg version="1.1" id="Layer_1" xmlns="http://www.w3.org/2000/svg" xmlns:xlink="http://www.w3.org/1999/xlink" x="0px" y="0px"
	 width="529.943px" height="544.969px" viewBox="0 0 529.943 544.969" enable-background="new 0 0 529.943 544.969"
	 xml:space="preserve">
<path fill="#FFFFFF" d="M506.879,117.942l-220.386,1.117L120.473,0c0,0-23.726,32.428,4.832,61.257
	c30.403,27.462,46.921,45.17,46.921,45.17L20.376,83.131c0,0-4.917,38.76,40.307,58.624c56.354,14.998,65.77,18.831,65.77,18.831
	L1.323,202.823c0,0,5.826,47.237,74.106,32.017c85.042-18.853,85.042-18.853,85.042-18.853l21.522,109.716l68.231,59.67
	c0,0,17.402-45.193-10.555-75.367c-10.213-8.319-10.219-10.037-10.219-10.037l4.29-63.951l61.498-11.098l29.815,29.473
	l-16.024,44.959l-17.278,9.643c0,0-38.161,26.686-11.081,77.543c55.522-31.661,70.296-41.926,70.296-41.926l43.328-51.447
	c0,0,70.196-12.586,115.31-68.733c22.38-3.066,20.225-5.37,20.225-5.37S532.933,146.148,506.879,117.942z"/>
<g>
	<path fill="#FFFFFF" d="M37.312,537.052c-1.536,2.156-3.76,4.015-6.671,5.576c-2.911,1.56-6.67,2.341-11.279,2.341
		c-5.847,0-10.535-1.702-14.066-5.11C1.766,536.453,0,531.615,0,525.347v-16.428c0-6.242,1.716-11.073,5.148-14.493
		c3.431-3.418,7.971-5.128,13.62-5.128c5.896,0,10.343,1.394,13.341,4.18c2.997,2.789,4.447,6.759,4.348,11.912l-0.074,0.223h-9.848
		c0-2.824-0.62-4.88-1.858-6.168c-1.24-1.288-3.11-1.934-5.612-1.934c-2.7,0-4.807,0.941-6.318,2.824
		c-1.511,1.884-2.267,4.721-2.267,8.511v16.501c0,3.865,0.768,6.74,2.304,8.621c1.536,1.884,3.729,2.825,6.578,2.825
		c2.031,0,3.629-0.242,4.794-0.725c1.164-0.483,2.056-1.121,2.676-1.914v-10.926h-8.251v-7.247h18.73V537.052z"/>
	<path fill="#FFFFFF" d="M93.185,520.292H76.647v15.721h19.808v8.175H66.167v-54.109h30.214v8.214H76.647v13.824h16.538V520.292z"/>
	<path fill="#FFFFFF" d="M134.899,524.603v19.585h-10.48v-54.109h18.099c5.426,0,9.724,1.593,12.896,4.775
		c3.171,3.185,4.756,7.354,4.756,12.506c0,5.179-1.585,9.346-4.756,12.506c-3.172,3.158-7.47,4.737-12.896,4.737H134.899z
		 M134.899,516.39h7.619c2.354,0,4.144-0.842,5.37-2.527c1.227-1.684,1.839-3.826,1.839-6.428c0-2.651-0.613-4.838-1.839-6.561
		c-1.226-1.722-3.017-2.582-5.37-2.582h-7.619V516.39z"/>
	<path fill="#FFFFFF" d="M215.821,521.556h-17.17v22.632h-10.48v-54.109h30.92v8.214h-20.44v15.088h17.17V521.556z"/>
	<path fill="#FFFFFF" d="M256.902,536.013h20.18v8.175h-30.66v-54.109h10.479V536.013z"/>
	<path fill="#FFFFFF" d="M340.426,490.078v35.342c0,6.146-1.766,10.939-5.295,14.384c-3.531,3.443-8.133,5.165-13.807,5.165
		c-5.649,0-10.232-1.728-13.75-5.185c-3.519-3.456-5.278-8.243-5.278-14.364v-35.342h10.443v35.342c0,3.692,0.768,6.511,2.304,8.455
		c1.536,1.946,3.629,2.918,6.281,2.918c2.7,0,4.813-0.967,6.336-2.897c1.524-1.934,2.286-4.758,2.286-8.476v-35.342H340.426z
		 M317.534,484.467h-9.329v-7.321h9.329V484.467z M334.442,484.467h-9.291v-7.321h9.291V484.467z"/>
	<path fill="#FFFFFF" d="M405.106,527.391l0.075,0.224c0.098,5.797-1.382,10.139-4.441,13.025c-3.06,2.887-7.427,4.329-13.101,4.329
		c-5.822,0-10.443-1.716-13.862-5.146c-3.419-3.432-5.128-8.306-5.128-14.624v-16.056c0-6.293,1.654-11.173,4.961-14.643
		c3.308-3.468,7.773-5.202,13.398-5.202c5.92,0,10.467,1.437,13.638,4.311c3.171,2.875,4.707,7.223,4.609,13.045l-0.074,0.223
		h-10.184c0-3.468-0.613-5.896-1.839-7.284c-1.227-1.387-3.277-2.081-6.15-2.081c-2.627,0-4.597,0.947-5.909,2.844
		c-1.313,1.895-1.97,4.8-1.97,8.715v16.129c0,3.939,0.706,6.856,2.118,8.751c1.412,1.896,3.542,2.844,6.392,2.844
		c2.602,0,4.472-0.688,5.612-2.063c1.139-1.376,1.709-3.821,1.709-7.34H405.106z"/>
	<path fill="#FFFFFF" d="M446.411,521.481h-2.862v22.706H433.07v-54.109h10.479v22.148h2.157l11.482-22.148h13.008l-15.609,24.715
		l16.761,29.395h-13.379L446.411,521.481z"/>
	<path fill="#FFFFFF" d="M529.377,498.292h-12.71v45.896H506.15v-45.896h-12.376v-8.214h35.603V498.292z"/>
</g>
</svg>
